{
  "nodes": 30,
  "bootstrap": [0],
  "expected_transport_delay": 0.5,
  "target_conns": 5,
  "maintenance_dt": 1,
  "swap_linger": 1,
  "time_between_looking_for_peers": 1,
  "reconnection_cooldown": 5
}
